<svg width="480" height="94" viewBox="0 0 480 94" fill="none" xmlns="http://www.w3.org/2000/svg">
<path d="M315.596 19.4634L276.937 20.3729L262.876 0L214.176 0.780546V7.33312L225.654 7.06009L235.035 21.1451L165.331 22.6208C165.331 22.6208 163.791 22.5504 164.024 23.8351L174.825 49.7674C175.675 49.9248 287.316 50.1325 287.316 50.1325C291.64 50.1325 298.013 43.5749 298.013 43.5749L315.489 20.6594C315.459 20.6426 316.577 19.2725 315.596 19.4634ZM248.018 20.8671L238.157 7.06009L260.124 6.47385L269.635 20.3646L248.018 20.8671Z" fill="#DDDDDD"/>
<path d="M183.043 76.4102C183.034 77.3125 182.902 78.1146 182.646 78.8164C182.4 79.5091 182.054 80.1107 181.607 80.6211C181.161 81.1224 180.637 81.5508 180.035 81.9062C179.434 82.2526 178.786 82.5352 178.094 82.7539C177.401 82.9635 176.672 83.0957 175.906 83.1504C175.15 83.2142 174.389 83.2461 173.623 83.2461C172.238 83.2461 171.021 83.1914 169.973 83.082C169.371 83.0091 168.473 82.8086 167.279 82.4805C166.304 82.2161 165.538 81.9382 164.982 81.6465V76.2461H169.098C169.572 76.9023 170.105 77.3854 170.697 77.6953C171.299 78.0052 171.914 78.1602 172.543 78.1602C172.707 78.1602 172.889 78.1465 173.09 78.1191C173.29 78.0918 173.477 78.0143 173.65 77.8867C173.833 77.7591 173.983 77.5586 174.102 77.2852C174.229 77.0117 174.293 76.6289 174.293 76.1367C173.509 76.0638 172.73 75.959 171.955 75.8223C171.189 75.6855 170.456 75.4987 169.754 75.2617C169.052 75.0247 168.396 74.7285 167.785 74.373C167.184 74.0085 166.66 73.571 166.213 73.0605C165.775 72.5501 165.429 71.9531 165.174 71.2695C164.928 70.5768 164.805 69.7793 164.805 68.877C164.805 67.9108 164.932 67.0632 165.188 66.334C165.443 65.5957 165.789 64.9622 166.227 64.4336C166.673 63.8958 167.193 63.4538 167.785 63.1074C168.387 62.752 169.029 62.4694 169.713 62.2598C170.406 62.0501 171.121 61.918 171.859 61.8633C172.607 61.8086 173.35 61.7812 174.088 61.7812C175.163 61.7812 176.13 61.8223 176.986 61.9043C177.852 61.9772 178.632 62.0957 179.324 62.2598C180.017 62.4238 180.628 62.6107 181.156 62.8203C181.694 63.0208 182.173 63.2168 182.592 63.4082V68.7402H178.477C178.012 68.084 177.492 67.6009 176.918 67.291C176.353 66.9811 175.77 66.8262 175.168 66.8262C175.004 66.8262 174.817 66.849 174.607 66.8945C174.398 66.931 174.202 67.0267 174.02 67.1816C173.837 67.3275 173.682 67.5462 173.555 67.8379C173.427 68.1204 173.363 68.5078 173.363 69C174.958 69.0547 176.362 69.2279 177.574 69.5195C178.786 69.8112 179.794 70.2533 180.596 70.8457C181.407 71.429 182.018 72.181 182.428 73.1016C182.838 74.013 183.043 75.1159 183.043 76.4102Z" fill="#ED3900"/>
<path d="M203.852 62V69H201.555C201.4 68.7995 201.222 68.5944 201.021 68.3848C200.821 68.1751 200.598 67.9883 200.352 67.8242C200.105 67.651 199.837 67.5143 199.545 67.4141C199.253 67.3047 198.939 67.25 198.602 67.25V76.7246L200.352 77.0664V83H188.102V77.0664L189.852 76.7246V67.25C189.514 67.25 189.2 67.3047 188.908 67.4141C188.617 67.5143 188.348 67.651 188.102 67.8242C187.855 67.9883 187.632 68.1751 187.432 68.3848C187.231 68.5944 187.053 68.7995 186.898 69H184.602V62H203.852ZM216.238 77.75C216.858 77.75 217.441 77.6999 217.988 77.5996C218.535 77.4902 219.036 77.3535 219.492 77.1895C219.957 77.0254 220.376 76.8385 220.75 76.6289C221.124 76.4193 221.452 76.2096 221.734 76H224.018V83H205.738V77.0664L207.488 76.7246V68.3027L205.738 67.9609V62H224.018V69H221.816C221.525 68.7995 221.188 68.5944 220.805 68.3848C220.422 68.1751 219.993 67.9883 219.52 67.8242C219.055 67.651 218.549 67.5143 218.002 67.4141C217.455 67.3047 216.867 67.25 216.238 67.25V70.9824L220.34 70.0938V74.9336L216.238 74.0449V77.75ZM226.164 62H238.414V67.9609L236.664 68.3027V70.8867H243.664V68.3027L241.914 67.9609V62H254.164V67.9609L252.414 68.3027V76.7246L254.164 77.0664V83H241.914V77.0664L243.664 76.7246V73.9766H236.664V76.7246L238.414 77.0664V83H226.164V77.0664L227.914 76.7246V68.3027L226.164 67.9609V62ZM263.953 72.7598V76.7246L265.703 77.0527V83H256.953V77.0664L258.703 76.7246V68.2754L256.953 67.9336V62H267.453L274.453 72.7598V68.3027L272.703 67.9336V62H281.453V67.9336L279.703 68.2754V76.7246L281.453 77.0664V83H270.939L263.953 72.7598ZM284.242 62H296.492V67.9336L294.742 68.2754V76.7246L296.492 77.0664V83H284.242V77.0664L285.992 76.7246V68.2754L284.242 67.9336V62ZM324.492 65.3633C324.055 65.6823 323.626 66.0241 323.207 66.3887C322.788 66.7533 322.387 67.127 322.004 67.5098C321.621 67.8926 321.257 68.2754 320.91 68.6582C320.573 69.041 320.263 69.4102 319.98 69.7656C319.634 70.1849 319.306 70.5996 318.996 71.0098C318.686 71.4199 318.39 71.8346 318.107 72.2539C318.49 72.7826 318.868 73.2975 319.242 73.7988C319.625 74.291 320.008 74.7832 320.391 75.2754C320.71 75.6855 321.042 76.1094 321.389 76.5469C321.744 76.9753 322.1 77.3945 322.455 77.8047C322.811 78.2148 323.157 78.6022 323.494 78.9668C323.84 79.3223 324.164 79.6322 324.465 79.8965L324.479 83H313.65L309.781 74.2363V83H299.281V77.0664L301.031 76.7246V68.2754L299.281 67.9336V62H309.781V70.4219L313.65 62H324.479L324.492 65.3633Z" fill="black"/>
</svg>
